Deconvolute Luminescence Readings on Bacterial Culture Plates • reluxr
…
fl <- system.file(
   "extdata",
   "calibrate_tecan",
   "calTecan1.xlsx",
   package = "reluxr"
 )

Create a Deconvolution Matrix

dat <- plate_read_tecan(fl)

dat
#> # A tibble: 23,040 × 5
#>    cycle_nr time_s signal well   value
#>       <dbl>  <dbl> <chr>  <chr>  <dbl>
#>  1        1      0 OD600  A01   0.0450
#>  2        1      0 OD600  A02   0.0452
#>  3        1      0 OD600  A03   0.0453
#>  4        1      0 OD600  A04   0.0453
#>  5        1      0 OD600  A05   0.0453
#>  6        1      0 OD600  A06   0.0452
#>  7        1      0 OD600  A07   0.0458
#>  8        1      0 OD600  A08   0.0456
#>  9        1      0 OD600  A09   0.0455
#> 10        1      0 OD600  A10   0.0451
#> # … with 23,030 more rows
…
